21

5 197
127
t 3 93 s
t 4 178 n
h 4 33 e
f 0 69 s
h 1 156 e
f 2 58 n
h 0 189 n
t 1 52 n
f 3 132 e
t 4 100 s
f 1 149 s
h 4 191 e
t 4 87 n
f 3 24 e
t 3 172 e
f 2 5 w
r 4 86 w
h 3 51 s
h 3 63 n
h 0 163 s
t 2 158 e
r 1 132 s
h 2 29 w
h 2 102 n
h 3 9 n
t 2 71 w
f 1 27 s
t 1 41 n
t 1 117 e
t 0 119 s
r 1 94 w
r 3 71 w
h 2 38 w
f 3 69 e
t 4 11 s
r 3 50 e
f 0 61 w
h 4 167 e
t 4 162 e
t 3 29 n
t 4 114 e
t 2 61 n
h 0 114 e
t 0 108 s
t 2 66 s
h 4 14 w
t 2 189 w
r 2 9 e
h 4 63 n
r 1 149 w
r 3 29 n
h 0 48 e
t 3 160 n
t 3 114 n
t 1 163 n
h 1 173 n
t 1 10 n
r 0 145 e
r 3 99 w
t 1 71 w
r 1 139 s
f 0 176 s
t 2 123 e
h 1 195 n
t 0 20 n
h 0 136 w
h 3 68 n
h 2 91 e
f 4 68 s
h 3 53 s
t 3 6 e
f 0 97 n
t 2 176 n
r 3 114 s
r 1 99 n
t 1 19 n
h 1 117 n
t 1 90 s
r 1 153 w
r 1 133 w
r 4 63 s
r 0 167 s
f 4 112 e
h 4 67 s
r 2 162 w
f 4 88 e
f 2 32 s
f 0 185 n
h 1 151 e
h 0 172 w
f 4 78 s
h 3 11 e
f 2 166 w
r 4 64 n
f 0 15 s
f 4 164 e
r 1 196 s
h 2 13 e
f 2 104 w
h 1 71 s
h 0 116 n
r 0 98 n
r 0 53 e
h 4 52 s
f 0 8 n
f 3 176 n
t 2 58 n
r 4 196 e
h 2 92 s
r 1 25 s
f 2 160 e
r 1 66 w
h 4 177 s
r 4 32 s
h 1 35 n
t 3 57 s
h 0 25 n
f 1 150 w
r 2 182 e
r 3 27 w
r 2 116 w
r 0 79 w
f 1 191 w
t 4 137 n
f 0 4 s
r 0 69 w
f 2 19 n
948 6

20 175
2
h 8 32 w
f 10 129 w
1631 122

36 176
2
r 22 117 s
h 4 41 e
1606 126

40 182
2
r 24 67 s
f 1 169 s
1957 120

11 195
5
h 4 100 s
f 6 131 n
f 2 159 s
r 7 9 w
t 7 181 e
1913 128

34 187
5
t 14 174 w
t 22 98 s
f 22 79 w
f 29 105 n
h 31 79 s
1694 147

23 191
2
r 7 182 w
r 16 94 n
1928 144

12 191
5
f 3 165 e
h 5 154 n
h 0 154 n
t 6 185 e
h 0 55 e
1647 141

16 175
5
h 2 136 e
t 3 115 s
f 15 4 n
h 15 139 e
t 11 64 n
1819 128

21 182
3
t 13 137 e
r 4 144 w
r 2 22 w
1890 124

20 176
3
h 10 39 s
r 17 101 w
t 18 159 e
1984 146

40 176
5
h 10 166 n
t 14 154 s
f 9 69 n
h 31 12 n
r 32 109 n
1544 127

35 195
4
t 29 54 s
h 3 167 s
t 9 45 w
h 1 125 w
1869 129

38 185
3
h 11 115 n
r 18 48 e
t 5 112 s
1789 123

18 195
3
r 7 115 e
r 6 105 n
f 4 146 w
1535 145

32 182
5
t 14 67 w
f 9 9 s
f 4 101 w
r 6 170 e
t 22 115 s
1855 145

34 176
3
h 27 138 n
t 33 175 e
h 16 127 w
1591 150

14 189
2
t 11 165 e
r 7 29 s
1642 134

27 178
2
r 19 96 e
f 20 82 e
1660 121

28 182
5
h 7 108 n
r 16 102 w
t 23 51 e
r 15 68 n
f 10 85 e
1967 143

36 191
5
h 2 67 s
t 17 35 n
h 24 109 s
t 30 187 e
h 23 40 n
1645 128
